^C:\USERS\PC\DOCUMENTS\VISUAL STUDIO 2010\PROJECTS\WINDOWSFORMSAPPLICATION2013\WINDOWSFORMSAPPLICATION2013\PROPERTIES\RESOURCES.RESX
^C:\USERS\PC\DOCUMENTS\VISUAL STUDIO 2010\PROJECTS\WINDOWSFORMSAPPLICATION2013\WINDOWSFORMSAPPLICATION2013\FORM1.RESX
^C:\USERS\PC\DESKTOP\GIT\10.10\WINDOWSFORMSAPPLICATION2013\WINDOWSFORMSAPPLICATION2013\PROPERTIES\RESOURCES.RESX
^C:\USERS\PC\DESKTOP\GIT\10.10\WINDOWSFORMSAPPLICATION2013\WINDOWSFORMSAPPLICATION2013\FORM2.RESX
^C:\USERS\PC\DESKTOP\GIT\10.10\WINDOWSFORMSAPPLICATION2013\WINDOWSFORMSAPPLICATION2013\POISK_FORM.RESX
^C:\USERS\PC\DESKTOP\GIT\10.10\WINDOWSFORMSAPPLICATION2013\WINDOWSFORMSAPPLICATION2013\FORM1.RESX
